{
	"version": "0.0.1",
	"apps": [
		{
			"project":"Chromaland",
			"display_name": "Chromaland",
			"link": "https://gitlab.com/interactiveupv/launcherdata/-/raw/main/test_apps/Chromaland.zip?ref_type=heads&inline=false",
			"link_mac": "https://gitlab.com/interactiveupv/launcherdata/-/raw/main/test_apps/Chromaland_mac.zip?ref_type=heads&inline=false",
			"authors": ["Raúl Pérez Cañas"],
			"desc": "Un jueguito de laberintos",
			"curso": "2022-2023",
			"version": 0
		},
		{
			"project":"PresidentsRumble",
			"display_name": "Presidents Rumble",
			"link": "https://www.dropbox.com/scl/fi/90whx7tomkach7qks8x3g/PresidentsRumble.zip?rlkey=xnko3c8bgbuvgdq6jt7xsorjk&st=oebllvuz&dl=1",
			"link_mac": "https://www.dropbox.com/scl/fi/zxbcg6hvpj8c3mz8l2oe2/PresidentsRumble_mac.zip?rlkey=pw4z3gszrxigl4ojkdzz0657e&st=thyxavaz&dl=1",
			"authors": ["Mario Sanjuan Cantó"],
			"desc": "Peleitas de presidentes",
			"curso": "2023-2024",
			"version": 0
		}
	]
}